<?xml version="1.0" encoding="utf-8" standalone="no"?>
<!DOCTYPE svg PUBLIC "-//W3C//DTD SVG 1.1//EN" "http://www.w3.org/Graphics/SVG/1.1/DTD/svg11.dtd">
<!-- Created with Skedio (http://skedio.shturmsoft.com/) -->
<svg version="1.1" xmlns="http://www.w3.org/2000/svg" xmlns:xlink="http://www.w3.org/1999/xlink" width="219pt" height="604pt" viewBox="0 0 219 604">
<g id="layer1">
	<path fill="none" stroke="#1A1A1A" stroke-width="2.00" stroke-linecap="round" stroke-linejoin="round" d="M129.025 51.932C139.699,58.487 157.318,66.189 161.047,71.597 162.546,73.771 161.800,75.574 162.177,77.562 "/>
	<path fill="none" stroke="#09979B" stroke-width="5.50" stroke-linecap="round" stroke-linejoin="round" d="M131.523 50.306C135.422,43.173 140.674,32.814 143.220,28.907 144.247,27.330 144.880,26.041 145.641,25.753 146.057,25.596 146.550,25.690 146.847,25.964 147.273,26.359 147.571,27.332 147.472,28.414 147.257,30.759 144.179,35.783 142.500,39.186 140.951,42.326 139.055,45.685 137.797,48.126 136.931,49.807 136.149,52.370 135.639,52.401 135.403,52.416 135.257,51.831 135.066,51.546 "/>
	<path fill="none" stroke="#1A1A1A" stroke-width="2.00" stroke-linecap="round" stroke-linejoin="round" d="M109.457 57.793C110.833,58.703 112.232,59.356 113.587,60.525 115.220,61.934 118.156,63.992 118.393,65.879 118.613,67.639 117.017,70.258 115.490,71.427 113.914,72.635 110.049,71.728 108.972,72.874 108.167,73.731 108.511,75.122 108.392,76.558 108.227,78.555 108.044,81.746 108.329,83.758 108.541,85.264 108.703,86.551 109.480,87.624 110.330,88.797 112.622,89.135 113.442,90.370 114.250,91.587 114.693,93.367 114.408,94.954 114.050,96.950 112.397,100.076 110.454,101.220 108.403,102.428 103.588,100.547 102.211,101.689 101.278,102.463 101.509,104.052 101.300,105.367 101.065,106.844 99.955,109.064 100.952,110.134 103.028,112.360 114.680,111.705 121.642,110.072 129.559,108.215 137.644,102.186 145.646,98.242 "/>
	<path fill="none" stroke="#1A1A1A" stroke-width="2.00" stroke-linecap="round" stroke-linejoin="round" d="M144.191 99.120C147.658,97.055 151.533,94.936 154.594,92.924 157.141,91.250 160.334,89.727 161.390,88.013 162.064,86.918 161.751,85.760 161.932,84.633 "/>
	<path fill="none" stroke="#1A1A1A" stroke-width="2.00" stroke-linecap="round" stroke-linejoin="round" d="M109.210 57.713C107.600,56.440 105.724,55.540 104.381,53.895 102.868,52.039 101.501,49.246 100.859,46.906 100.280,44.794 100.412,42.663 100.420,40.545 100.428,38.429 100.369,35.708 100.904,34.204 101.246,33.241 101.697,32.470 102.389,32.065 103.107,31.645 104.135,31.442 105.181,31.802 107.118,32.469 109.845,36.210 112.177,38.414 "/>
	<path fill="none" stroke="#09979B" stroke-width="6.00" stroke-linecap="round" stroke-linejoin="round" d="M97.457 97.395L103.488,97.395 103.488,117.317 97.457,117.317 Z"/>
	<ellipse fill="none" stroke="#1A1A1A" stroke-width="1.00" stroke-linecap="round" stroke-linejoin="round" cx="131.189" cy="93.880" rx="2.353" ry="2.303" transform="rotate(22.328 131.189 93.880)"/>
	<ellipse fill="none" stroke="#1A1A1A" stroke-width="1.00" stroke-linecap="round" stroke-linejoin="round" cx="126.256" cy="96.431" rx="1.011" ry="1.123" transform="rotate(22.329 126.256 96.431)"/>
	<ellipse fill="none" stroke="#1A1A1A" stroke-width="1.00" stroke-linecap="round" stroke-linejoin="round" cx="121.725" cy="98.892" rx="0.764" ry="0.744" transform="rotate(22.329 121.725 98.892)"/>
	<path fill="none" stroke="#1A1A1A" stroke-width="1.00" stroke-linecap="round" stroke-linejoin="round" d="M129.010 89.705C130.580,89.532 132.498,88.714 133.720,89.185 134.791,89.597 135.803,90.914 136.132,91.904 136.421,92.776 136.237,93.809 135.894,94.717 135.498,95.766 134.606,96.839 133.648,97.746 132.555,98.781 131.110,99.655 129.553,100.452 127.741,101.380 125.185,102.388 123.335,102.812 121.927,103.134 120.567,103.458 119.497,103.150 118.568,102.882 117.419,102.187 117.184,101.394 116.918,100.499 117.646,99.121 118.433,97.916 119.614,96.104 122.496,93.593 124.485,92.169 126.072,91.033 127.622,90.524 129.191,89.702 "/>
	<path fill="none" stroke="#1A1A1A" stroke-width="7.00" stroke-linecap="round" stroke-linejoin="round" d="M90.637 91.424L94.391,91.424 94.391,578.204 90.637,578.204 Z"/>
	<path fill="none" stroke="#1A1A1A" stroke-width="2.00" stroke-linecap="round" stroke-linejoin="round" d="M25.596 131.311L56.016,131.311 56.016,164.158 25.596,164.158 Z"/>
	<path fill="none" stroke="#1A1A1A" stroke-width="2.00" stroke-linecap="round" stroke-linejoin="round" d="M62.974 141.828L73.168,141.828 73.168,153.582 62.974,153.582 Z"/>
	<path fill="none" stroke="#1A1A1A" stroke-width="2.00" stroke-linecap="round" stroke-linejoin="round" d="M56.661 145.822L72.567,145.822 72.567,149.416 56.661,149.416 Z"/>
	<path fill="none" stroke="#1A1A1A" stroke-width="2.00" stroke-linecap="round" stroke-linejoin="round" d="M56.937 134.530L82.234,134.561 "/>
	<path fill="none" stroke="#1A1A1A" stroke-width="2.00" stroke-linecap="round" stroke-linejoin="round" d="M69.414 109.313C60.598,108.498 50.060,109.489 42.967,106.867 37.346,104.788 32.019,100.377 29.350,97.227 27.612,95.176 26.894,93.523 26.513,91.156 26.022,88.103 26.064,82.868 27.856,80.284 29.394,78.066 31.876,76.954 35.442,75.930 42.219,73.986 62.904,71.951 67.013,74.734 68.710,75.883 68.694,77.981 68.822,79.810 68.967,81.870 68.927,85.228 67.448,86.510 65.704,88.021 59.404,85.413 57.962,87.077 56.536,88.722 57.167,93.701 58.729,96.337 60.638,99.559 66.449,101.435 70.309,103.983 "/>
	<ellipse fill="none" stroke="#1A1A1A" stroke-width="1.00" stroke-linecap="round" stroke-linejoin="round" cx="38.513" cy="86.230" rx="2.715" ry="2.657" />
	<path fill="none" stroke="#1A1A1A" stroke-width="5.00" stroke-linecap="round" stroke-linejoin="round" d="M70.539 81.827L193.893,81.827 193.893,79.323 70.539,79.323 Z"/>
	<ellipse fill="none" stroke="#1A1A1A" stroke-width="1.00" stroke-linecap="round" stroke-linejoin="round" cx="42.659" cy="91.115" rx="1.166" ry="1.296" />
	<ellipse fill="none" stroke="#1A1A1A" stroke-width="1.00" stroke-linecap="round" stroke-linejoin="round" cx="46.416" cy="95.727" rx="0.881" ry="0.859" />
	<path fill="none" stroke="#1A1A1A" stroke-width="1.00" stroke-linecap="round" stroke-linejoin="round" d="M42.669 82.729C41.069,81.856 39.380,80.142 37.869,80.109 36.546,80.080 34.889,81.041 34.104,81.954 33.412,82.758 33.156,83.941 33.124,85.060 33.087,86.354 33.569,87.889 34.194,89.278 34.906,90.862 36.065,92.427 37.378,93.961 38.905,95.746 41.191,97.941 42.980,99.205 44.341,100.167 45.650,101.108 46.928,101.248 48.037,101.370 49.568,101.132 50.167,100.388 50.842,99.549 50.669,97.760 50.359,96.129 49.891,93.677 47.917,89.733 46.418,87.342 45.222,85.434 43.791,84.211 42.477,82.646 "/>
	<path fill="none" stroke="#1A1A1A" stroke-width="2.00" stroke-linecap="round" stroke-linejoin="round" d="M56.100 159.690L83.733,159.635 "/>
	<path fill="none" stroke="#FE2712" stroke-width="1.00" stroke-linecap="round" stroke-linejoin="round" d="M72.995 141.432L63.912,141.432 63.912,432.801 72.995,432.801 Z"/>
	<path fill="none" stroke="#09979B" stroke-width="5.50" stroke-linecap="round" stroke-linejoin="round" d="M72.152 96.319L76.195,96.319 76.195,117.474 72.152,117.474 Z"/>
	<path fill="none" stroke="#1A1A1A" stroke-width="2.00" stroke-linecap="round" stroke-linejoin="round" d="M109.425 35.735C110.600,36.825 111.528,37.670 112.951,39.005 115.166,41.082 118.111,44.484 121.399,47.017 125.222,49.962 130.323,52.534 134.785,55.292 "/>
	<path fill="none" stroke="#FB9902" stroke-width="6.50" stroke-linecap="round" stroke-linejoin="round" d="M83.882 77.115L79.741,77.115 79.741,176.150 83.882,176.150 Z"/>
	<g>
		<path fill="none" stroke="#1A1A1A" stroke-width="1.00" stroke-linecap="round" stroke-linejoin="round" d="M30.223 441.556L74.149,441.556 74.149,450.683 30.223,450.683 Z"/>
		<path fill="none" stroke="#1A1A1A" stroke-width="1.00" stroke-linecap="round" stroke-linejoin="round" d="M74.254 441.654L85.985,446.150 "/>
		<path fill="none" stroke="#1A1A1A" stroke-width="1.00" stroke-linecap="round" stroke-linejoin="round" d="M74.228 450.675L85.901,446.400 "/>
	</g>
	<g>
		<path fill="none" stroke="#1A1A1A" stroke-width="1.00" stroke-linecap="round" stroke-linejoin="round" d="M60.420 455.878L80.238,455.878 80.238,464.351 60.420,464.351 Z"/>
		<path fill="none" stroke="#1A1A1A" stroke-width="4.00" stroke-linecap="round" stroke-linejoin="round" d="M80.471 460.286L84.128,460.263 "/>
		<path fill="none" stroke="#4169E1" stroke-width="1.00" stroke-linecap="round" stroke-linejoin="round" d="M60.731 466.449C61.930,463.650 63.120,459.012 64.327,458.053 64.814,457.665 65.381,457.583 65.793,457.789 66.301,458.043 66.926,459.192 66.967,459.892 67.006,460.545 66.483,461.813 66.166,461.851 65.872,461.886 65.281,460.913 65.156,460.371 65.036,459.844 65.049,459.101 65.393,458.654 65.893,458.006 67.747,457.262 68.567,457.498 69.251,457.695 69.991,458.679 70.120,459.388 70.248,460.084 69.766,461.559 69.375,461.706 69.065,461.822 68.346,461.268 68.176,460.868 68.003,460.458 68.194,459.750 68.378,459.259 68.567,458.757 68.906,458.160 69.313,457.894 69.708,457.637 70.336,457.479 70.766,457.655 71.268,457.860 71.939,458.685 72.052,459.314 72.169,459.959 71.667,461.444 71.406,461.488 71.217,461.520 70.821,460.907 70.764,460.504 70.690,459.978 70.951,459.038 71.343,458.546 71.763,458.021 72.737,457.402 73.287,457.523 73.814,457.639 74.510,458.516 74.596,459.148 74.693,459.852 73.843,461.622 73.581,461.596 73.331,461.571 72.810,459.839 73.042,459.199 73.286,458.525 74.552,457.582 75.142,457.703 75.727,457.824 76.480,459.189 76.572,459.896 76.647,460.470 76.266,461.524 76.037,461.572 75.863,461.608 75.509,461.155 75.427,460.805 75.305,460.285 75.444,459.107 75.862,458.619 76.273,458.139 77.481,457.605 77.887,457.877 78.445,458.253 78.776,461.108 78.030,461.960 77.040,463.090 73.235,462.474 70.859,462.656 68.520,462.834 65.371,462.068 63.884,463.043 62.709,463.814 62.579,465.640 61.927,466.938 "/>
	</g>
	<g>
		<path fill="none" stroke="#FB9902" stroke-width="6.00" stroke-linecap="round" stroke-linejoin="round" d="M56.650 451.619L75.403,451.619 75.403,436.399 56.650,436.399 Z"/>
		<path fill="none" stroke="#FB9902" stroke-width="6.00" stroke-linecap="round" stroke-linejoin="round" d="M79.803 418.447L77.385,418.447 77.385,473.618 79.803,473.618 Z"/>
	</g>
</g>
</svg>
