solid OpenSCAD_Model
  facet normal 0.951056 0.309017 0
    outer loop
      vertex 3 -7.5 10.8
      vertex 2.42705 -5.73664 4.04317
      vertex 2.42705 -5.73664 10.8
    endloop
  endfacet
  facet normal 0.951056 0.309017 0
    outer loop
      vertex 2.42705 -5.73664 4.04317
      vertex 3 -7.5 10.8
      vertex 3 -7.5 3.80585
    endloop
  endfacet
  facet normal -0.951056 0.309017 0
    outer loop
      vertex -3 -7.5 10.8
      vertex -2.42705 -5.73664 4.04317
      vertex -3 -7.5 3.80585
    endloop
  endfacet
  facet normal -0.951056 0.309017 0
    outer loop
      vertex -2.42705 -5.73664 4.04317
      vertex -3 -7.5 10.8
      vertex -2.42705 -5.73664 10.8
    endloop
  endfacet
  facet normal 0 1 0
    outer loop
      vertex 0.927051 -4.64683 10.8
      vertex 0 -4.64683 4.5
      vertex -0.927051 -4.64683 10.8
    endloop
  endfacet
  facet normal -0 1 0
    outer loop
      vertex 0 -4.64683 4.5
      vertex 0.927051 -4.64683 10.8
      vertex 0.927051 -4.64683 4.37795
    endloop
  endfacet
  facet normal 0 1 0
    outer loop
      vertex -0.927051 -4.64683 10.8
      vertex 0 -4.64683 4.5
      vertex -0.927051 -4.64683 4.37795
    endloop
  endfacet
  facet normal 0.587785 0.809017 0
    outer loop
      vertex 2.42705 -5.73664 10.8
      vertex 0.927051 -4.64683 4.37795
      vertex 0.927051 -4.64683 10.8
    endloop
  endfacet
  facet normal 0.587785 0.809017 3.95853e-008
    outer loop
      vertex 2.42705 -5.73664 10.8
      vertex 1.94114 -5.38361 4.24444
      vertex 0.927051 -4.64683 4.37795
    endloop
  endfacet
  facet normal 0.587786 0.809017 0
    outer loop
      vertex 1.94114 -5.38361 4.24444
      vertex 2.42705 -5.73664 10.8
      vertex 2.42705 -5.73664 4.04317
    endloop
  endfacet
  facet normal -0 0 1
    outer loop
      vertex 1.69037 -7.04707 10.8
      vertex 3 -7.5 10.8
      vertex 2.42705 -5.73664 10.8
    endloop
  endfacet
  facet normal 0 0 1
    outer loop
      vertex 1.73503 -7.72842 10.8
      vertex 3 -7.5 10.8
      vertex 1.75 -7.5 10.8
    endloop
  endfacet
  facet normal 0 0 1
    outer loop
      vertex 3 -7.5 10.8
      vertex 1.73503 -7.27158 10.8
      vertex 1.75 -7.5 10.8
    endloop
  endfacet
  facet normal 0 0 1
    outer loop
      vertex 3 -7.5 10.8
      vertex 1.69037 -7.04707 10.8
      vertex 1.73503 -7.27158 10.8
    endloop
  endfacet
  facet normal 0 0 1
    outer loop
      vertex 2.42705 -5.73664 10.8
      vertex 1.61679 -6.8303 10.8
      vertex 1.69037 -7.04707 10.8
    endloop
  endfacet
  facet normal 0 0 1
    outer loop
      vertex 2.42705 -5.73664 10.8
      vertex 1.51554 -6.625 10.8
      vertex 1.61679 -6.8303 10.8
    endloop
  endfacet
  facet normal 0 0 1
    outer loop
      vertex 2.42705 -5.73664 10.8
      vertex 1.38837 -6.43467 10.8
      vertex 1.51554 -6.625 10.8
    endloop
  endfacet
  facet normal 0 0 1
    outer loop
      vertex 2.42705 -5.73664 10.8
      vertex 1.23744 -6.26256 10.8
      vertex 1.38837 -6.43467 10.8
    endloop
  endfacet
  facet normal 0 0 1
    outer loop
      vertex 2.42705 -5.73664 10.8
      vertex 1.06533 -6.11163 10.8
      vertex 1.23744 -6.26256 10.8
    endloop
  endfacet
  facet normal 0 0 1
    outer loop
      vertex 0.927051 -4.64683 10.8
      vertex 1.06533 -6.11163 10.8
      vertex 2.42705 -5.73664 10.8
    endloop
  endfacet
  facet normal 0 0 1
    outer loop
      vertex 0.927051 -4.64683 10.8
      vertex 0.875 -5.98446 10.8
      vertex 1.06533 -6.11163 10.8
    endloop
  endfacet
  facet normal 0 0 1
    outer loop
      vertex 0.927051 -4.64683 10.8
      vertex 0.669696 -5.88321 10.8
      vertex 0.875 -5.98446 10.8
    endloop
  endfacet
  facet normal 0 0 1
    outer loop
      vertex 0.927051 -4.64683 10.8
      vertex 0.452933 -5.80963 10.8
      vertex 0.669696 -5.88321 10.8
    endloop
  endfacet
  facet normal 0 0 1
    outer loop
      vertex 0.927051 -4.64683 10.8
      vertex 0.22842 -5.76497 10.8
      vertex 0.452933 -5.80963 10.8
    endloop
  endfacet
  facet normal 0 0 1
    outer loop
      vertex 0.927051 -4.64683 10.8
      vertex 0 -5.75 10.8
      vertex 0.22842 -5.76497 10.8
    endloop
  endfacet
  facet normal -0 0 1
    outer loop
      vertex -0.927051 -4.64683 10.8
      vertex 0 -5.75 10.8
      vertex 0.927051 -4.64683 10.8
    endloop
  endfacet
  facet normal 0 0 1
    outer loop
      vertex 0 -5.75 10.8
      vertex -0.927051 -4.64683 10.8
      vertex -0.22842 -5.76497 10.8
    endloop
  endfacet
  facet normal 0 0 1
    outer loop
      vertex -0.22842 -5.76497 10.8
      vertex -0.927051 -4.64683 10.8
      vertex -0.452933 -5.80963 10.8
    endloop
  endfacet
  facet normal 0 0 1
    outer loop
      vertex -0.452933 -5.80963 10.8
      vertex -0.927051 -4.64683 10.8
      vertex -0.669696 -5.88321 10.8
    endloop
  endfacet
  facet normal 0 0 1
    outer loop
      vertex -0.669696 -5.88321 10.8
      vertex -0.927051 -4.64683 10.8
      vertex -0.874999 -5.98446 10.8
    endloop
  endfacet
  facet normal 0 0 1
    outer loop
      vertex -0.927051 -4.64683 10.8
      vertex -1.06533 -6.11163 10.8
      vertex -0.874999 -5.98446 10.8
    endloop
  endfacet
  facet normal -0 0 1
    outer loop
      vertex -2.42705 -5.73664 10.8
      vertex -1.06533 -6.11163 10.8
      vertex -0.927051 -4.64683 10.8
    endloop
  endfacet
  facet normal 0 0 1
    outer loop
      vertex -1.06533 -6.11163 10.8
      vertex -2.42705 -5.73664 10.8
      vertex -1.23744 -6.26256 10.8
    endloop
  endfacet
  facet normal 0 0 1
    outer loop
      vertex -1.23744 -6.26256 10.8
      vertex -2.42705 -5.73664 10.8
      vertex -1.38837 -6.43467 10.8
    endloop
  endfacet
  facet normal 0 0 1
    outer loop
      vertex -1.38837 -6.43467 10.8
      vertex -2.42705 -5.73664 10.8
      vertex -1.51554 -6.625 10.8
    endloop
  endfacet
  facet normal 0 0 1
    outer loop
      vertex -1.51554 -6.625 10.8
      vertex -2.42705 -5.73664 10.8
      vertex -1.61679 -6.8303 10.8
    endloop
  endfacet
  facet normal 0 0 1
    outer loop
      vertex -1.69037 -7.04707 10.8
      vertex -3 -7.5 10.8
      vertex -1.73503 -7.27158 10.8
    endloop
  endfacet
  facet normal 0 0 1
    outer loop
      vertex -3 -7.5 10.8
      vertex -1.69037 -7.04707 10.8
      vertex -2.42705 -5.73664 10.8
    endloop
  endfacet
  facet normal 0 0 1
    outer loop
      vertex -1.61679 -6.8303 10.8
      vertex -2.42705 -5.73664 10.8
      vertex -1.69037 -7.04707 10.8
    endloop
  endfacet
  facet normal 0 0 1
    outer loop
      vertex 1.69037 -7.95293 10.8
      vertex 3 -7.5 10.8
      vertex 1.73503 -7.72842 10.8
    endloop
  endfacet
  facet normal 0 0 1
    outer loop
      vertex 3 -7.5 10.8
      vertex 1.69037 -7.95293 10.8
      vertex 2.42705 -9.26336 10.8
    endloop
  endfacet
  facet normal -0 0 1
    outer loop
      vertex 1.61679 -8.1697 10.8
      vertex 2.42705 -9.26336 10.8
      vertex 1.69037 -7.95293 10.8
    endloop
  endfacet
  facet normal -0 0 1
    outer loop
      vertex 1.51554 -8.375 10.8
      vertex 2.42705 -9.26336 10.8
      vertex 1.61679 -8.1697 10.8
    endloop
  endfacet
  facet normal -0 0 1
    outer loop
      vertex 1.38837 -8.56533 10.8
      vertex 2.42705 -9.26336 10.8
      vertex 1.51554 -8.375 10.8
    endloop
  endfacet
  facet normal -0 0 1
    outer loop
      vertex 1.23744 -8.73744 10.8
      vertex 2.42705 -9.26336 10.8
      vertex 1.38837 -8.56533 10.8
    endloop
  endfacet
  facet normal -0 0 1
    outer loop
      vertex 1.06533 -8.88837 10.8
      vertex 2.42705 -9.26336 10.8
      vertex 1.23744 -8.73744 10.8
    endloop
  endfacet
  facet normal 0 0 1
    outer loop
      vertex 1.06533 -8.88837 10.8
      vertex 0.927051 -10.3532 10.8
      vertex 2.42705 -9.26336 10.8
    endloop
  endfacet
  facet normal -0 0 1
    outer loop
      vertex 0.875 -9.01554 10.8
      vertex 0.927051 -10.3532 10.8
      vertex 1.06533 -8.88837 10.8
    endloop
  endfacet
  facet normal -0 0 1
    outer loop
      vertex 0.669696 -9.11679 10.8
      vertex 0.927051 -10.3532 10.8
      vertex 0.875 -9.01554 10.8
    endloop
  endfacet
  facet normal -0 0 1
    outer loop
      vertex 0.452933 -9.19037 10.8
      vertex 0.927051 -10.3532 10.8
      vertex 0.669696 -9.11679 10.8
    endloop
  endfacet
  facet normal -0 0 1
    outer loop
      vertex 0.22842 -9.23503 10.8
      vertex 0.927051 -10.3532 10.8
      vertex 0.452933 -9.19037 10.8
    endloop
  endfacet
  facet normal -0 0 1
    outer loop
      vertex 0 -9.25 10.8
      vertex 0.927051 -10.3532 10.8
      vertex 0.22842 -9.23503 10.8
    endloop
  endfacet
  facet normal 0 0 1
    outer loop
      vertex -0.927051 -10.3532 10.8
      vertex 0 -9.25 10.8
      vertex -0.22842 -9.23503 10.8
    endloop
  endfacet
  facet normal 0 0 1
    outer loop
      vertex -0.927051 -10.3532 10.8
      vertex -0.22842 -9.23503 10.8
      vertex -0.452933 -9.19037 10.8
    endloop
  endfacet
  facet normal 0 0 1
    outer loop
      vertex -0.927051 -10.3532 10.8
      vertex -0.452933 -9.19037 10.8
      vertex -0.669696 -9.11679 10.8
    endloop
  endfacet
  facet normal 0 0 1
    outer loop
      vertex -0.927051 -10.3532 10.8
      vertex -0.669696 -9.11679 10.8
      vertex -0.875 -9.01554 10.8
    endloop
  endfacet
  facet normal 0 0 1
    outer loop
      vertex 0 -9.25 10.8
      vertex -0.927051 -10.3532 10.8
      vertex 0.927051 -10.3532 10.8
    endloop
  endfacet
  facet normal 0 0 1
    outer loop
      vertex -1.06533 -8.88837 10.8
      vertex -0.927051 -10.3532 10.8
      vertex -0.875 -9.01554 10.8
    endloop
  endfacet
  facet normal 0 0 1
    outer loop
      vertex -2.42705 -9.26336 10.8
      vertex -1.06533 -8.88837 10.8
      vertex -1.23744 -8.73744 10.8
    endloop
  endfacet
  facet normal 0 0 1
    outer loop
      vertex -2.42705 -9.26336 10.8
      vertex -1.23744 -8.73744 10.8
      vertex -1.38837 -8.56533 10.8
    endloop
  endfacet
  facet normal 0 0 1
    outer loop
      vertex -2.42705 -9.26336 10.8
      vertex -1.38837 -8.56533 10.8
      vertex -1.51554 -8.375 10.8
    endloop
  endfacet
  facet normal 0 0 1
    outer loop
      vertex -2.42705 -9.26336 10.8
      vertex -1.51554 -8.375 10.8
      vertex -1.61679 -8.1697 10.8
    endloop
  endfacet
  facet normal 0 0 1
    outer loop
      vertex -2.42705 -9.26336 10.8
      vertex -1.61679 -8.1697 10.8
      vertex -1.69037 -7.95293 10.8
    endloop
  endfacet
  facet normal 0 0 1
    outer loop
      vertex -1.73503 -7.27158 10.8
      vertex -3 -7.5 10.8
      vertex -1.75 -7.5 10.8
    endloop
  endfacet
  facet normal 0 0 1
    outer loop
      vertex -1.75 -7.5 10.8
      vertex -3 -7.5 10.8
      vertex -1.73503 -7.72842 10.8
    endloop
  endfacet
  facet normal 0 0 1
    outer loop
      vertex -1.73503 -7.72842 10.8
      vertex -3 -7.5 10.8
      vertex -1.69037 -7.95293 10.8
    endloop
  endfacet
  facet normal 0 0 1
    outer loop
      vertex -1.06533 -8.88837 10.8
      vertex -2.42705 -9.26336 10.8
      vertex -0.927051 -10.3532 10.8
    endloop
  endfacet
  facet normal 0 0 1
    outer loop
      vertex -1.69037 -7.95293 10.8
      vertex -3 -7.5 10.8
      vertex -2.42705 -9.26336 10.8
    endloop
  endfacet
  facet normal -0.587785 0.809017 0
    outer loop
      vertex -0.927051 -4.64683 4.37795
      vertex -2.42705 -5.73664 10.8
      vertex -0.927051 -4.64683 10.8
    endloop
  endfacet
  facet normal -0.587785 0.809017 3.95853e-008
    outer loop
      vertex -1.94114 -5.38361 4.24444
      vertex -2.42705 -5.73664 10.8
      vertex -0.927051 -4.64683 4.37795
    endloop
  endfacet
  facet normal -0.587786 0.809017 0
    outer loop
      vertex -2.42705 -5.73664 10.8
      vertex -1.94114 -5.38361 4.24444
      vertex -2.42705 -5.73664 4.04317
    endloop
  endfacet
  facet normal 0.951056 -0.309017 0
    outer loop
      vertex 2.42705 -9.26336 4.04317
      vertex 3 -7.5 10.8
      vertex 2.42705 -9.26336 10.8
    endloop
  endfacet
  facet normal 0.951056 -0.309017 0
    outer loop
      vertex 3 -7.5 10.8
      vertex 2.42705 -9.26336 4.04317
      vertex 3 -7.5 3.80585
    endloop
  endfacet
  facet normal -0.951056 -0.309017 0
    outer loop
      vertex -2.42705 -9.26336 4.04317
      vertex -3 -7.5 10.8
      vertex -3 -7.5 3.80585
    endloop
  endfacet
  facet normal -0.951056 -0.309017 0
    outer loop
      vertex -3 -7.5 10.8
      vertex -2.42705 -9.26336 4.04317
      vertex -2.42705 -9.26336 10.8
    endloop
  endfacet
  facet normal 0 -1 0
    outer loop
      vertex -0.927051 -10.3532 10.8
      vertex 0 -10.3532 4.5
      vertex 0.927051 -10.3532 10.8
    endloop
  endfacet
  facet normal -0 -1 0
    outer loop
      vertex 0 -10.3532 4.5
      vertex -0.927051 -10.3532 10.8
      vertex -0.927051 -10.3532 4.37795
    endloop
  endfacet
  facet normal 0 -1 -0
    outer loop
      vertex 0.927051 -10.3532 10.8
      vertex 0 -10.3532 4.5
      vertex 0.927051 -10.3532 4.37795
    endloop
  endfacet
  facet normal 0.587785 -0.809017 0
    outer loop
      vertex 0.927051 -10.3532 4.37795
      vertex 2.42705 -9.26336 10.8
      vertex 0.927051 -10.3532 10.8
    endloop
  endfacet
  facet normal 0.587786 -0.809017 -4.66162e-008
    outer loop
      vertex 1.94114 -9.61639 4.24444
      vertex 2.42705 -9.26336 10.8
      vertex 0.927051 -10.3532 4.37795
    endloop
  endfacet
  facet normal 0.587785 -0.809017 0
    outer loop
      vertex 2.42705 -9.26336 10.8
      vertex 1.94114 -9.61639 4.24444
      vertex 2.42705 -9.26336 4.04317
    endloop
  endfacet
  facet normal -0.587785 -0.809017 0
    outer loop
      vertex -2.42705 -9.26336 10.8
      vertex -0.927051 -10.3532 4.37795
      vertex -0.927051 -10.3532 10.8
    endloop
  endfacet
  facet normal -0.587786 -0.809017 -4.66162e-008
    outer loop
      vertex -2.42705 -9.26336 10.8
      vertex -1.94114 -9.61639 4.24444
      vertex -0.927051 -10.3532 4.37795
    endloop
  endfacet
  facet normal -0.587785 -0.809017 0
    outer loop
      vertex -1.94114 -9.61639 4.24444
      vertex -2.42705 -9.26336 10.8
      vertex -2.42705 -9.26336 4.04317
    endloop
  endfacet
  facet normal -0.555571 -0.831469 0
    outer loop
      vertex 0.875 -5.98446 5
      vertex 1.06533 -6.11163 10.8
      vertex 0.875 -5.98446 10.8
    endloop
  endfacet
  facet normal -0.555571 -0.831469 -0
    outer loop
      vertex 1.06533 -6.11163 10.8
      vertex 0.875 -5.98446 5
      vertex 1.06533 -6.11163 5
    endloop
  endfacet
  facet normal 0.321439 -0.94693 0
    outer loop
      vertex -0.669696 -5.88321 5
      vertex -0.452933 -5.80963 10.8
      vertex -0.669696 -5.88321 10.8
    endloop
  endfacet
  facet normal 0.321439 -0.94693 0
    outer loop
      vertex -0.452933 -5.80963 10.8
      vertex -0.669696 -5.88321 5
      vertex -0.452933 -5.80963 5
    endloop
  endfacet
  facet normal 0.896872 -0.442291 0
    outer loop
      vertex -1.61679 -6.8303 10.8
      vertex -1.51554 -6.625 5
      vertex -1.51554 -6.625 10.8
    endloop
  endfacet
  facet normal 0.896872 -0.442291 0
    outer loop
      vertex -1.51554 -6.625 5
      vertex -1.61679 -6.8303 10.8
      vertex -1.61679 -6.8303 5
    endloop
  endfacet
  facet normal -0.896872 -0.442291 0
    outer loop
      vertex 1.61679 -6.8303 5
      vertex 1.51554 -6.625 10.8
      vertex 1.51554 -6.625 5
    endloop
  endfacet
  facet normal -0.896872 -0.442291 0
    outer loop
      vertex 1.51554 -6.625 10.8
      vertex 1.61679 -6.8303 5
      vertex 1.61679 -6.8303 10.8
    endloop
  endfacet
  facet normal -0.83147 -0.555569 0
    outer loop
      vertex 1.51554 -6.625 5
      vertex 1.38837 -6.43467 10.8
      vertex 1.38837 -6.43467 5
    endloop
  endfacet
  facet normal -0.83147 -0.555569 0
    outer loop
      vertex 1.38837 -6.43467 10.8
      vertex 1.51554 -6.625 5
      vertex 1.51554 -6.625 10.8
    endloop
  endfacet
  facet normal -0.442289 -0.896873 0
    outer loop
      vertex 0.669696 -5.88321 5
      vertex 0.875 -5.98446 10.8
      vertex 0.669696 -5.88321 10.8
    endloop
  endfacet
  facet normal -0.442289 -0.896873 -0
    outer loop
      vertex 0.875 -5.98446 10.8
      vertex 0.669696 -5.88321 5
      vertex 0.875 -5.98446 5
    endloop
  endfacet
  facet normal -0.0654043 -0.997859 0
    outer loop
      vertex 0 -5.75 5
      vertex 0.22842 -5.76497 10.8
      vertex 0 -5.75 10.8
    endloop
  endfacet
  facet normal -0.0654043 -0.997859 -0
    outer loop
      vertex 0.22842 -5.76497 10.8
      vertex 0 -5.75 5
      vertex 0.22842 -5.76497 5
    endloop
  endfacet
  facet normal 0.997859 -0.0654043 0
    outer loop
      vertex -1.75 -7.5 10.8
      vertex -1.73503 -7.27158 5
      vertex -1.73503 -7.27158 10.8
    endloop
  endfacet
  facet normal 0.997859 -0.0654043 0
    outer loop
      vertex -1.73503 -7.27158 5
      vertex -1.75 -7.5 10.8
      vertex -1.75 -7.5 5
    endloop
  endfacet
  facet normal 0.751839 -0.659347 0
    outer loop
      vertex -1.38837 -6.43467 10.8
      vertex -1.23744 -6.26256 5
      vertex -1.23744 -6.26256 10.8
    endloop
  endfacet
  facet normal 0.751839 -0.659347 0
    outer loop
      vertex -1.23744 -6.26256 5
      vertex -1.38837 -6.43467 10.8
      vertex -1.38837 -6.43467 5
    endloop
  endfacet
  facet normal 0.0654043 -0.997859 0
    outer loop
      vertex -0.22842 -5.76497 5
      vertex 0 -5.75 10.8
      vertex -0.22842 -5.76497 10.8
    endloop
  endfacet
  facet normal 0.0654043 -0.997859 0
    outer loop
      vertex 0 -5.75 10.8
      vertex -0.22842 -5.76497 5
      vertex 0 -5.75 5
    endloop
  endfacet
  facet normal 0.659347 -0.751839 0
    outer loop
      vertex -1.23744 -6.26256 5
      vertex -1.06533 -6.11163 10.8
      vertex -1.23744 -6.26256 10.8
    endloop
  endfacet
  facet normal 0.659347 -0.751839 0
    outer loop
      vertex -1.06533 -6.11163 10.8
      vertex -1.23744 -6.26256 5
      vertex -1.06533 -6.11163 5
    endloop
  endfacet
  facet normal -0.997859 -0.0654043 0
    outer loop
      vertex 1.75 -7.5 5
      vertex 1.73503 -7.27158 10.8
      vertex 1.73503 -7.27158 5
    endloop
  endfacet
  facet normal -0.997859 -0.0654043 0
    outer loop
      vertex 1.73503 -7.27158 10.8
      vertex 1.75 -7.5 5
      vertex 1.75 -7.5 10.8
    endloop
  endfacet
  facet normal -0.0654043 0.997859 0
    outer loop
      vertex 0.22842 -9.23503 5
      vertex 0 -9.25 10.8
      vertex 0.22842 -9.23503 10.8
    endloop
  endfacet
  facet normal -0.0654043 0.997859 0
    outer loop
      vertex 0 -9.25 10.8
      vertex 0.22842 -9.23503 5
      vertex 0 -9.25 5
    endloop
  endfacet
  facet normal -0.831469 0.555571 0
    outer loop
      vertex 1.38837 -8.56533 5
      vertex 1.51554 -8.375 10.8
      vertex 1.51554 -8.375 5
    endloop
  endfacet
  facet normal -0.831469 0.555571 0
    outer loop
      vertex 1.51554 -8.375 10.8
      vertex 1.38837 -8.56533 5
      vertex 1.38837 -8.56533 10.8
    endloop
  endfacet
  facet normal -0.94693 0.321439 0
    outer loop
      vertex 1.61679 -8.1697 5
      vertex 1.69037 -7.95293 10.8
      vertex 1.69037 -7.95293 5
    endloop
  endfacet
  facet normal -0.94693 0.321439 0
    outer loop
      vertex 1.69037 -7.95293 10.8
      vertex 1.61679 -8.1697 5
      vertex 1.61679 -8.1697 10.8
    endloop
  endfacet
  facet normal 0.0654043 0.997859 -0
    outer loop
      vertex 0 -9.25 5
      vertex -0.22842 -9.23503 10.8
      vertex 0 -9.25 10.8
    endloop
  endfacet
  facet normal 0.0654043 0.997859 0
    outer loop
      vertex -0.22842 -9.23503 10.8
      vertex 0 -9.25 5
      vertex -0.22842 -9.23503 5
    endloop
  endfacet
  facet normal 0.659347 0.751839 -0
    outer loop
      vertex -1.06533 -8.88837 5
      vertex -1.23744 -8.73744 10.8
      vertex -1.06533 -8.88837 10.8
    endloop
  endfacet
  facet normal 0.659347 0.751839 0
    outer loop
      vertex -1.23744 -8.73744 10.8
      vertex -1.06533 -8.88837 5
      vertex -1.23744 -8.73744 5
    endloop
  endfacet
  facet normal 0.997859 0.0654043 0
    outer loop
      vertex -1.73503 -7.72842 10.8
      vertex -1.75 -7.5 5
      vertex -1.75 -7.5 10.8
    endloop
  endfacet
  facet normal 0.997859 0.0654043 0
    outer loop
      vertex -1.75 -7.5 5
      vertex -1.73503 -7.72842 10.8
      vertex -1.73503 -7.72842 5
    endloop
  endfacet
  facet normal 0 0 1
    outer loop
      vertex 1.73503 -7.27158 5
      vertex 1.73503 -7.72842 5
      vertex 1.75 -7.5 5
    endloop
  endfacet
  facet normal 0 0 1
    outer loop
      vertex 1.69037 -7.04707 5
      vertex 1.73503 -7.72842 5
      vertex 1.73503 -7.27158 5
    endloop
  endfacet
  facet normal 0 0 1
    outer loop
      vertex 1.69037 -7.04707 5
      vertex 1.69037 -7.95293 5
      vertex 1.73503 -7.72842 5
    endloop
  endfacet
  facet normal 0 0 1
    outer loop
      vertex 1.61679 -6.8303 5
      vertex 1.69037 -7.95293 5
      vertex 1.69037 -7.04707 5
    endloop
  endfacet
  facet normal 0 0 1
    outer loop
      vertex 1.61679 -6.8303 5
      vertex 1.61679 -8.1697 5
      vertex 1.69037 -7.95293 5
    endloop
  endfacet
  facet normal 0 0 1
    outer loop
      vertex 1.51554 -6.625 5
      vertex 1.61679 -8.1697 5
      vertex 1.61679 -6.8303 5
    endloop
  endfacet
  facet normal 0 0 1
    outer loop
      vertex 1.51554 -6.625 5
      vertex 1.51554 -8.375 5
      vertex 1.61679 -8.1697 5
    endloop
  endfacet
  facet normal 0 0 1
    outer loop
      vertex 1.38837 -6.43467 5
      vertex 1.51554 -8.375 5
      vertex 1.51554 -6.625 5
    endloop
  endfacet
  facet normal 0 0 1
    outer loop
      vertex 1.38837 -6.43467 5
      vertex 1.38837 -8.56533 5
      vertex 1.51554 -8.375 5
    endloop
  endfacet
  facet normal 0 0 1
    outer loop
      vertex 1.23744 -6.26256 5
      vertex 1.38837 -8.56533 5
      vertex 1.38837 -6.43467 5
    endloop
  endfacet
  facet normal 0 0 1
    outer loop
      vertex 1.23744 -6.26256 5
      vertex 1.23744 -8.73744 5
      vertex 1.38837 -8.56533 5
    endloop
  endfacet
  facet normal 0 0 1
    outer loop
      vertex 1.06533 -6.11163 5
      vertex 1.23744 -8.73744 5
      vertex 1.23744 -6.26256 5
    endloop
  endfacet
  facet normal 0 0 1
    outer loop
      vertex 1.06533 -6.11163 5
      vertex 1.06533 -8.88837 5
      vertex 1.23744 -8.73744 5
    endloop
  endfacet
  facet normal 0 0 1
    outer loop
      vertex 0.875 -5.98446 5
      vertex 1.06533 -8.88837 5
      vertex 1.06533 -6.11163 5
    endloop
  endfacet
  facet normal 0 0 1
    outer loop
      vertex 0.875 -5.98446 5
      vertex 0.875 -9.01554 5
      vertex 1.06533 -8.88837 5
    endloop
  endfacet
  facet normal 0 0 1
    outer loop
      vertex 0.669696 -5.88321 5
      vertex 0.875 -9.01554 5
      vertex 0.875 -5.98446 5
    endloop
  endfacet
  facet normal 0 0 1
    outer loop
      vertex 0.669696 -5.88321 5
      vertex 0.669696 -9.11679 5
      vertex 0.875 -9.01554 5
    endloop
  endfacet
  facet normal 0 0 1
    outer loop
      vertex 0.452933 -5.80963 5
      vertex 0.669696 -9.11679 5
      vertex 0.669696 -5.88321 5
    endloop
  endfacet
  facet normal 0 0 1
    outer loop
      vertex 0.452933 -5.80963 5
      vertex 0.452933 -9.19037 5
      vertex 0.669696 -9.11679 5
    endloop
  endfacet
  facet normal 0 0 1
    outer loop
      vertex 0.22842 -5.76497 5
      vertex 0.452933 -9.19037 5
      vertex 0.452933 -5.80963 5
    endloop
  endfacet
  facet normal 0 0 1
    outer loop
      vertex 0.22842 -5.76497 5
      vertex 0.22842 -9.23503 5
      vertex 0.452933 -9.19037 5
    endloop
  endfacet
  facet normal 0 0 1
    outer loop
      vertex 0 -5.75 5
      vertex 0.22842 -9.23503 5
      vertex 0.22842 -5.76497 5
    endloop
  endfacet
  facet normal 0 0 1
    outer loop
      vertex 0 -5.75 5
      vertex 0 -9.25 5
      vertex 0.22842 -9.23503 5
    endloop
  endfacet
  facet normal -0 0 1
    outer loop
      vertex -0.22842 -5.76497 5
      vertex 0 -9.25 5
      vertex 0 -5.75 5
    endloop
  endfacet
  facet normal 0 0 1
    outer loop
      vertex -0.22842 -5.76497 5
      vertex -0.22842 -9.23503 5
      vertex 0 -9.25 5
    endloop
  endfacet
  facet normal -0 0 1
    outer loop
      vertex -0.452933 -5.80963 5
      vertex -0.22842 -9.23503 5
      vertex -0.22842 -5.76497 5
    endloop
  endfacet
  facet normal 0 0 1
    outer loop
      vertex -0.452933 -5.80963 5
      vertex -0.452933 -9.19037 5
      vertex -0.22842 -9.23503 5
    endloop
  endfacet
  facet normal -0 0 1
    outer loop
      vertex -0.669696 -5.88321 5
      vertex -0.452933 -9.19037 5
      vertex -0.452933 -5.80963 5
    endloop
  endfacet
  facet normal 0 0 1
    outer loop
      vertex -0.669696 -5.88321 5
      vertex -0.669696 -9.11679 5
      vertex -0.452933 -9.19037 5
    endloop
  endfacet
  facet normal -0 0 1
    outer loop
      vertex -0.874999 -5.98446 5
      vertex -0.669696 -9.11679 5
      vertex -0.669696 -5.88321 5
    endloop
  endfacet
  facet normal 0 0 1
    outer loop
      vertex -0.874999 -5.98446 5
      vertex -0.875 -9.01554 5
      vertex -0.669696 -9.11679 5
    endloop
  endfacet
  facet normal -0 0 1
    outer loop
      vertex -1.06533 -6.11163 5
      vertex -0.875 -9.01554 5
      vertex -0.874999 -5.98446 5
    endloop
  endfacet
  facet normal 0 0 1
    outer loop
      vertex -1.06533 -6.11163 5
      vertex -1.06533 -8.88837 5
      vertex -0.875 -9.01554 5
    endloop
  endfacet
  facet normal -0 0 1
    outer loop
      vertex -1.23744 -6.26256 5
      vertex -1.06533 -8.88837 5
      vertex -1.06533 -6.11163 5
    endloop
  endfacet
  facet normal 0 0 1
    outer loop
      vertex -1.23744 -6.26256 5
      vertex -1.23744 -8.73744 5
      vertex -1.06533 -8.88837 5
    endloop
  endfacet
  facet normal -0 0 1
    outer loop
      vertex -1.38837 -6.43467 5
      vertex -1.23744 -8.73744 5
      vertex -1.23744 -6.26256 5
    endloop
  endfacet
  facet normal 0 0 1
    outer loop
      vertex -1.38837 -6.43467 5
      vertex -1.38837 -8.56533 5
      vertex -1.23744 -8.73744 5
    endloop
  endfacet
  facet normal -0 0 1
    outer loop
      vertex -1.51554 -6.625 5
      vertex -1.38837 -8.56533 5
      vertex -1.38837 -6.43467 5
    endloop
  endfacet
  facet normal 0 0 1
    outer loop
      vertex -1.51554 -6.625 5
      vertex -1.51554 -8.375 5
      vertex -1.38837 -8.56533 5
    endloop
  endfacet
  facet normal -0 0 1
    outer loop
      vertex -1.61679 -6.8303 5
      vertex -1.51554 -8.375 5
      vertex -1.51554 -6.625 5
    endloop
  endfacet
  facet normal 0 0 1
    outer loop
      vertex -1.61679 -6.8303 5
      vertex -1.61679 -8.1697 5
      vertex -1.51554 -8.375 5
    endloop
  endfacet
  facet normal -0 0 1
    outer loop
      vertex -1.69037 -7.04707 5
      vertex -1.61679 -8.1697 5
      vertex -1.61679 -6.8303 5
    endloop
  endfacet
  facet normal 0 0 1
    outer loop
      vertex -1.69037 -7.04707 5
      vertex -1.69037 -7.95293 5
      vertex -1.61679 -8.1697 5
    endloop
  endfacet
  facet normal -0 0 1
    outer loop
      vertex -1.73503 -7.27158 5
      vertex -1.69037 -7.95293 5
      vertex -1.69037 -7.04707 5
    endloop
  endfacet
  facet normal 0 0 1
    outer loop
      vertex -1.73503 -7.27158 5
      vertex -1.73503 -7.72842 5
      vertex -1.69037 -7.95293 5
    endloop
  endfacet
  facet normal 0 -0 1
    outer loop
      vertex -1.73503 -7.72842 5
      vertex -1.73503 -7.27158 5
      vertex -1.75 -7.5 5
    endloop
  endfacet
  facet normal -0.980785 -0.195091 0
    outer loop
      vertex 1.73503 -7.27158 5
      vertex 1.69037 -7.04707 10.8
      vertex 1.69037 -7.04707 5
    endloop
  endfacet
  facet normal -0.980785 -0.195091 0
    outer loop
      vertex 1.69037 -7.04707 10.8
      vertex 1.73503 -7.27158 5
      vertex 1.73503 -7.27158 10.8
    endloop
  endfacet
  facet normal -0.94693 -0.321439 0
    outer loop
      vertex 1.69037 -7.04707 5
      vertex 1.61679 -6.8303 10.8
      vertex 1.61679 -6.8303 5
    endloop
  endfacet
  facet normal -0.94693 -0.321439 0
    outer loop
      vertex 1.61679 -6.8303 10.8
      vertex 1.69037 -7.04707 5
      vertex 1.69037 -7.04707 10.8
    endloop
  endfacet
  facet normal -0.751839 -0.659347 0
    outer loop
      vertex 1.38837 -6.43467 5
      vertex 1.23744 -6.26256 10.8
      vertex 1.23744 -6.26256 5
    endloop
  endfacet
  facet normal -0.751839 -0.659347 0
    outer loop
      vertex 1.23744 -6.26256 10.8
      vertex 1.38837 -6.43467 5
      vertex 1.38837 -6.43467 10.8
    endloop
  endfacet
  facet normal -0.659347 -0.751839 0
    outer loop
      vertex 1.06533 -6.11163 5
      vertex 1.23744 -6.26256 10.8
      vertex 1.06533 -6.11163 10.8
    endloop
  endfacet
  facet normal -0.659347 -0.751839 -0
    outer loop
      vertex 1.23744 -6.26256 10.8
      vertex 1.06533 -6.11163 5
      vertex 1.23744 -6.26256 5
    endloop
  endfacet
  facet normal -0.321439 -0.94693 0
    outer loop
      vertex 0.452933 -5.80963 5
      vertex 0.669696 -5.88321 10.8
      vertex 0.452933 -5.80963 10.8
    endloop
  endfacet
  facet normal -0.321439 -0.94693 -0
    outer loop
      vertex 0.669696 -5.88321 10.8
      vertex 0.452933 -5.80963 5
      vertex 0.669696 -5.88321 5
    endloop
  endfacet
  facet normal -0.195091 -0.980785 0
    outer loop
      vertex 0.22842 -5.76497 5
      vertex 0.452933 -5.80963 10.8
      vertex 0.22842 -5.76497 10.8
    endloop
  endfacet
  facet normal -0.195091 -0.980785 -0
    outer loop
      vertex 0.452933 -5.80963 10.8
      vertex 0.22842 -5.76497 5
      vertex 0.452933 -5.80963 5
    endloop
  endfacet
  facet normal 0.94693 -0.321439 0
    outer loop
      vertex -1.69037 -7.04707 10.8
      vertex -1.61679 -6.8303 5
      vertex -1.61679 -6.8303 10.8
    endloop
  endfacet
  facet normal 0.94693 -0.321439 0
    outer loop
      vertex -1.61679 -6.8303 5
      vertex -1.69037 -7.04707 10.8
      vertex -1.69037 -7.04707 5
    endloop
  endfacet
  facet normal 0.980785 -0.195091 0
    outer loop
      vertex -1.73503 -7.27158 10.8
      vertex -1.69037 -7.04707 5
      vertex -1.69037 -7.04707 10.8
    endloop
  endfacet
  facet normal 0.980785 -0.195091 0
    outer loop
      vertex -1.69037 -7.04707 5
      vertex -1.73503 -7.27158 10.8
      vertex -1.73503 -7.27158 5
    endloop
  endfacet
  facet normal 0.83147 -0.555569 0
    outer loop
      vertex -1.51554 -6.625 10.8
      vertex -1.38837 -6.43467 5
      vertex -1.38837 -6.43467 10.8
    endloop
  endfacet
  facet normal 0.83147 -0.555569 0
    outer loop
      vertex -1.38837 -6.43467 5
      vertex -1.51554 -6.625 10.8
      vertex -1.51554 -6.625 5
    endloop
  endfacet
  facet normal 0.195091 -0.980785 0
    outer loop
      vertex -0.452933 -5.80963 5
      vertex -0.22842 -5.76497 10.8
      vertex -0.452933 -5.80963 10.8
    endloop
  endfacet
  facet normal 0.195091 -0.980785 0
    outer loop
      vertex -0.22842 -5.76497 10.8
      vertex -0.452933 -5.80963 5
      vertex -0.22842 -5.76497 5
    endloop
  endfacet
  facet normal 0.555569 -0.83147 0
    outer loop
      vertex -1.06533 -6.11163 5
      vertex -0.874999 -5.98446 10.8
      vertex -1.06533 -6.11163 10.8
    endloop
  endfacet
  facet normal 0.555569 -0.83147 0
    outer loop
      vertex -0.874999 -5.98446 10.8
      vertex -1.06533 -6.11163 5
      vertex -0.874999 -5.98446 5
    endloop
  endfacet
  facet normal 0.442291 -0.896872 0
    outer loop
      vertex -0.874999 -5.98446 5
      vertex -0.669696 -5.88321 10.8
      vertex -0.874999 -5.98446 10.8
    endloop
  endfacet
  facet normal 0.442291 -0.896872 0
    outer loop
      vertex -0.669696 -5.88321 10.8
      vertex -0.874999 -5.98446 5
      vertex -0.669696 -5.88321 5
    endloop
  endfacet
  facet normal -0.997859 0.0654043 0
    outer loop
      vertex 1.73503 -7.72842 5
      vertex 1.75 -7.5 10.8
      vertex 1.75 -7.5 5
    endloop
  endfacet
  facet normal -0.997859 0.0654043 0
    outer loop
      vertex 1.75 -7.5 10.8
      vertex 1.73503 -7.72842 5
      vertex 1.73503 -7.72842 10.8
    endloop
  endfacet
  facet normal -0.195091 0.980785 0
    outer loop
      vertex 0.452933 -9.19037 5
      vertex 0.22842 -9.23503 10.8
      vertex 0.452933 -9.19037 10.8
    endloop
  endfacet
  facet normal -0.195091 0.980785 0
    outer loop
      vertex 0.22842 -9.23503 10.8
      vertex 0.452933 -9.19037 5
      vertex 0.22842 -9.23503 5
    endloop
  endfacet
  facet normal -0.751839 0.659347 0
    outer loop
      vertex 1.23744 -8.73744 5
      vertex 1.38837 -8.56533 10.8
      vertex 1.38837 -8.56533 5
    endloop
  endfacet
  facet normal -0.751839 0.659347 0
    outer loop
      vertex 1.38837 -8.56533 10.8
      vertex 1.23744 -8.73744 5
      vertex 1.23744 -8.73744 10.8
    endloop
  endfacet
  facet normal -0.659347 0.751839 0
    outer loop
      vertex 1.23744 -8.73744 5
      vertex 1.06533 -8.88837 10.8
      vertex 1.23744 -8.73744 10.8
    endloop
  endfacet
  facet normal -0.659347 0.751839 0
    outer loop
      vertex 1.06533 -8.88837 10.8
      vertex 1.23744 -8.73744 5
      vertex 1.06533 -8.88837 5
    endloop
  endfacet
  facet normal -0.442289 0.896873 0
    outer loop
      vertex 0.875 -9.01554 5
      vertex 0.669696 -9.11679 10.8
      vertex 0.875 -9.01554 10.8
    endloop
  endfacet
  facet normal -0.442289 0.896873 0
    outer loop
      vertex 0.669696 -9.11679 10.8
      vertex 0.875 -9.01554 5
      vertex 0.669696 -9.11679 5
    endloop
  endfacet
  facet normal 0.321439 0.94693 -0
    outer loop
      vertex -0.452933 -9.19037 5
      vertex -0.669696 -9.11679 10.8
      vertex -0.452933 -9.19037 10.8
    endloop
  endfacet
  facet normal 0.321439 0.94693 0
    outer loop
      vertex -0.669696 -9.11679 10.8
      vertex -0.452933 -9.19037 5
      vertex -0.669696 -9.11679 5
    endloop
  endfacet
  facet normal 0.442289 0.896873 -0
    outer loop
      vertex -0.669696 -9.11679 5
      vertex -0.875 -9.01554 10.8
      vertex -0.669696 -9.11679 10.8
    endloop
  endfacet
  facet normal 0.442289 0.896873 0
    outer loop
      vertex -0.875 -9.01554 10.8
      vertex -0.669696 -9.11679 5
      vertex -0.875 -9.01554 5
    endloop
  endfacet
  facet normal 0.980785 0.195091 0
    outer loop
      vertex -1.69037 -7.95293 10.8
      vertex -1.73503 -7.72842 5
      vertex -1.73503 -7.72842 10.8
    endloop
  endfacet
  facet normal 0.980785 0.195091 0
    outer loop
      vertex -1.73503 -7.72842 5
      vertex -1.69037 -7.95293 10.8
      vertex -1.69037 -7.95293 5
    endloop
  endfacet
  facet normal 0.751839 0.659347 0
    outer loop
      vertex -1.23744 -8.73744 10.8
      vertex -1.38837 -8.56533 5
      vertex -1.38837 -8.56533 10.8
    endloop
  endfacet
  facet normal 0.751839 0.659347 0
    outer loop
      vertex -1.38837 -8.56533 5
      vertex -1.23744 -8.73744 10.8
      vertex -1.23744 -8.73744 5
    endloop
  endfacet
  facet normal 0.896872 0.442291 0
    outer loop
      vertex -1.51554 -8.375 10.8
      vertex -1.61679 -8.1697 5
      vertex -1.61679 -8.1697 10.8
    endloop
  endfacet
  facet normal 0.896872 0.442291 0
    outer loop
      vertex -1.61679 -8.1697 5
      vertex -1.51554 -8.375 10.8
      vertex -1.51554 -8.375 5
    endloop
  endfacet
  facet normal -0.980785 0.195091 0
    outer loop
      vertex 1.69037 -7.95293 5
      vertex 1.73503 -7.72842 10.8
      vertex 1.73503 -7.72842 5
    endloop
  endfacet
  facet normal -0.980785 0.195091 0
    outer loop
      vertex 1.73503 -7.72842 10.8
      vertex 1.69037 -7.95293 5
      vertex 1.69037 -7.95293 10.8
    endloop
  endfacet
  facet normal -0.896873 0.442289 0
    outer loop
      vertex 1.51554 -8.375 5
      vertex 1.61679 -8.1697 10.8
      vertex 1.61679 -8.1697 5
    endloop
  endfacet
  facet normal -0.896873 0.442289 0
    outer loop
      vertex 1.61679 -8.1697 10.8
      vertex 1.51554 -8.375 5
      vertex 1.51554 -8.375 10.8
    endloop
  endfacet
  facet normal -0.321439 0.94693 0
    outer loop
      vertex 0.669696 -9.11679 5
      vertex 0.452933 -9.19037 10.8
      vertex 0.669696 -9.11679 10.8
    endloop
  endfacet
  facet normal -0.321439 0.94693 0
    outer loop
      vertex 0.452933 -9.19037 10.8
      vertex 0.669696 -9.11679 5
      vertex 0.452933 -9.19037 5
    endloop
  endfacet
  facet normal -0.555571 0.831469 0
    outer loop
      vertex 1.06533 -8.88837 5
      vertex 0.875 -9.01554 10.8
      vertex 1.06533 -8.88837 10.8
    endloop
  endfacet
  facet normal -0.555571 0.831469 0
    outer loop
      vertex 0.875 -9.01554 10.8
      vertex 1.06533 -8.88837 5
      vertex 0.875 -9.01554 5
    endloop
  endfacet
  facet normal 0.195091 0.980785 -0
    outer loop
      vertex -0.22842 -9.23503 5
      vertex -0.452933 -9.19037 10.8
      vertex -0.22842 -9.23503 10.8
    endloop
  endfacet
  facet normal 0.195091 0.980785 0
    outer loop
      vertex -0.452933 -9.19037 10.8
      vertex -0.22842 -9.23503 5
      vertex -0.452933 -9.19037 5
    endloop
  endfacet
  facet normal 0.555571 0.831469 -0
    outer loop
      vertex -0.875 -9.01554 5
      vertex -1.06533 -8.88837 10.8
      vertex -0.875 -9.01554 10.8
    endloop
  endfacet
  facet normal 0.555571 0.831469 0
    outer loop
      vertex -1.06533 -8.88837 10.8
      vertex -0.875 -9.01554 5
      vertex -1.06533 -8.88837 5
    endloop
  endfacet
  facet normal 0.94693 0.321439 0
    outer loop
      vertex -1.61679 -8.1697 10.8
      vertex -1.69037 -7.95293 5
      vertex -1.69037 -7.95293 10.8
    endloop
  endfacet
  facet normal 0.94693 0.321439 0
    outer loop
      vertex -1.69037 -7.95293 5
      vertex -1.61679 -8.1697 10.8
      vertex -1.61679 -8.1697 5
    endloop
  endfacet
  facet normal 0.83147 0.555569 0
    outer loop
      vertex -1.38837 -8.56533 10.8
      vertex -1.51554 -8.375 5
      vertex -1.51554 -8.375 10.8
    endloop
  endfacet
  facet normal 0.83147 0.555569 0
    outer loop
      vertex -1.51554 -8.375 5
      vertex -1.38837 -8.56533 10.8
      vertex -1.38837 -8.56533 5
    endloop
  endfacet
  facet normal 0.608761 0 0.793354
    outer loop
      vertex 3.75 7.76088e-016 3.49519
      vertex 5.3033 -30 2.3033
      vertex 5.3033 5.11436e-016 2.3033
    endloop
  endfacet
  facet normal 0.608761 0 0.793354
    outer loop
      vertex 5.3033 -30 2.3033
      vertex 3.75 7.76088e-016 3.49519
      vertex 3.75 -30 3.49519
    endloop
  endfacet
  facet normal 0.793354 -0 0.608761
    outer loop
      vertex 5.3033 -30 2.3033
      vertex 6.49519 1.66533e-016 0.749999
      vertex 5.3033 5.11436e-016 2.3033
    endloop
  endfacet
  facet normal 0.793354 0 0.608761
    outer loop
      vertex 6.49519 1.66533e-016 0.749999
      vertex 5.3033 -30 2.3033
      vertex 6.49519 -30 0.749999
    endloop
  endfacet
  facet normal 0.923879 -0 0.382684
    outer loop
      vertex 6.49519 -30 0.749999
      vertex 6.80585 0 0
      vertex 6.49519 1.66533e-016 0.749999
    endloop
  endfacet
  facet normal 0.923879 0 0.382684
    outer loop
      vertex 6.80585 0 0
      vertex 6.49519 -30 0.749999
      vertex 6.80585 -30 0
    endloop
  endfacet
  facet normal -0.130527 0 0.991445
    outer loop
      vertex 0 9.99201e-016 4.5
      vertex -0.927051 -4.64683 4.37795
      vertex 0 -4.64683 4.5
    endloop
  endfacet
  facet normal -0.130527 1.70823e-008 0.991445
    outer loop
      vertex -1.94114 9.42456e-016 4.24444
      vertex -0.927051 -4.64683 4.37795
      vertex 0 9.99201e-016 4.5
    endloop
  endfacet
  facet normal -0.130527 0 0.991445
    outer loop
      vertex -0.927051 -4.64683 4.37795
      vertex -1.94114 9.42456e-016 4.24444
      vertex -1.94114 -5.38361 4.24444
    endloop
  endfacet
  facet normal -0.130527 0 0.991445
    outer loop
      vertex -0.927051 -10.3532 4.37795
      vertex 0 -30 4.5
      vertex 0 -10.3532 4.5
    endloop
  endfacet
  facet normal -0.130527 0 0.991445
    outer loop
      vertex -1.94114 -30 4.24444
      vertex -0.927051 -10.3532 4.37795
      vertex -1.94114 -9.61639 4.24444
    endloop
  endfacet
  facet normal -0.130527 -4.04028e-009 0.991445
    outer loop
      vertex -0.927051 -10.3532 4.37795
      vertex -1.94114 -30 4.24444
      vertex 0 -30 4.5
    endloop
  endfacet
  facet normal -0.923879 0 0.382684
    outer loop
      vertex -6.80585 -30 0
      vertex -6.49519 1.66533e-016 0.749999
      vertex -6.80585 0 0
    endloop
  endfacet
  facet normal -0.923879 0 0.382684
    outer loop
      vertex -6.49519 1.66533e-016 0.749999
      vertex -6.80585 -30 0
      vertex -6.49519 -30 0.749999
    endloop
  endfacet
  facet normal 0 1 -2.22045e-016
    outer loop
      vertex 0.955065 5.36558e-016 2.41644
      vertex 0 9.99201e-016 4.5
      vertex 1.94114 9.42456e-016 4.24444
    endloop
  endfacet
  facet normal 0 1 -2.22045e-016
    outer loop
      vertex 2.75 3.91495e-016 1.76314
      vertex 1.94114 9.42456e-016 4.24444
      vertex 3.75 7.76088e-016 3.49519
    endloop
  endfacet
  facet normal 0 1 -2.22045e-016
    outer loop
      vertex -0.955065 5.36558e-016 2.41644
      vertex 0 9.99201e-016 4.5
      vertex 0.955065 5.36558e-016 2.41644
    endloop
  endfacet
  facet normal 0 1 -2.22045e-016
    outer loop
      vertex 0 9.99201e-016 4.5
      vertex -0.955065 5.36558e-016 2.41644
      vertex -1.94114 9.42456e-016 4.24444
    endloop
  endfacet
  facet normal 0 1 -2.22045e-016
    outer loop
      vertex 2.75 3.91495e-016 1.76314
      vertex 3.75 7.76088e-016 3.49519
      vertex 5.3033 5.11436e-016 2.3033
    endloop
  endfacet
  facet normal 0 1 -2.22045e-016
    outer loop
      vertex 1.94114 9.42456e-016 4.24444
      vertex 2.75 3.91495e-016 1.76314
      vertex 0.955065 5.36558e-016 2.41644
    endloop
  endfacet
  facet normal 0 1 -2.22045e-016
    outer loop
      vertex 4.21324 1.18868e-016 0.535332
      vertex 5.3033 5.11436e-016 2.3033
      vertex 6.49519 1.66533e-016 0.749999
    endloop
  endfacet
  facet normal 0 1 -2.22045e-016
    outer loop
      vertex 5.3033 5.11436e-016 2.3033
      vertex 4.21324 1.18868e-016 0.535332
      vertex 2.75 3.91495e-016 1.76314
    endloop
  endfacet
  facet normal 0 1 -2.22045e-016
    outer loop
      vertex 4.52232 0 0
      vertex 6.49519 1.66533e-016 0.749999
      vertex 6.80585 0 0
    endloop
  endfacet
  facet normal 0 1 -2.22045e-016
    outer loop
      vertex 6.49519 1.66533e-016 0.749999
      vertex 4.52232 0 0
      vertex 4.21324 1.18868e-016 0.535332
    endloop
  endfacet
  facet normal 0 1 -2.22045e-016
    outer loop
      vertex -2.75 3.91495e-016 1.76314
      vertex -1.94114 9.42456e-016 4.24444
      vertex -0.955065 5.36558e-016 2.41644
    endloop
  endfacet
  facet normal 0 1 -2.22045e-016
    outer loop
      vertex -1.94114 9.42456e-016 4.24444
      vertex -2.75 3.91495e-016 1.76314
      vertex -3.75 7.76088e-016 3.49519
    endloop
  endfacet
  facet normal 0 1 -2.22045e-016
    outer loop
      vertex -3.75 7.76088e-016 3.49519
      vertex -2.75 3.91495e-016 1.76314
      vertex -5.3033 5.11436e-016 2.3033
    endloop
  endfacet
  facet normal 0 1 -2.22045e-016
    outer loop
      vertex -4.21324 1.18868e-016 0.535332
      vertex -5.3033 5.11436e-016 2.3033
      vertex -2.75 3.91495e-016 1.76314
    endloop
  endfacet
  facet normal 0 1 -2.22045e-016
    outer loop
      vertex -5.3033 5.11436e-016 2.3033
      vertex -4.21324 1.18868e-016 0.535332
      vertex -6.49519 1.66533e-016 0.749999
    endloop
  endfacet
  facet normal 0 1 -2.22045e-016
    outer loop
      vertex -4.52232 0 0
      vertex -6.49519 1.66533e-016 0.749999
      vertex -4.21324 1.18868e-016 0.535332
    endloop
  endfacet
  facet normal 0 1 -2.22045e-016
    outer loop
      vertex -6.49519 1.66533e-016 0.749999
      vertex -4.52232 0 0
      vertex -6.80585 0 0
    endloop
  endfacet
  facet normal 0.130527 0 0.991445
    outer loop
      vertex 1.94114 9.42456e-016 4.24444
      vertex 0.927051 -4.64683 4.37795
      vertex 1.94114 -5.38361 4.24444
    endloop
  endfacet
  facet normal 0.130527 1.70823e-008 0.991445
    outer loop
      vertex 0 9.99201e-016 4.5
      vertex 0.927051 -4.64683 4.37795
      vertex 1.94114 9.42456e-016 4.24444
    endloop
  endfacet
  facet normal 0.130527 0 0.991445
    outer loop
      vertex 0.927051 -4.64683 4.37795
      vertex 0 9.99201e-016 4.5
      vertex 0 -4.64683 4.5
    endloop
  endfacet
  facet normal 0.130527 0 0.991445
    outer loop
      vertex 0.927051 -10.3532 4.37795
      vertex 1.94114 -30 4.24444
      vertex 1.94114 -9.61639 4.24444
    endloop
  endfacet
  facet normal 0.130527 -0 0.991445
    outer loop
      vertex 0 -30 4.5
      vertex 0.927051 -10.3532 4.37795
      vertex 0 -10.3532 4.5
    endloop
  endfacet
  facet normal 0.130527 -4.04028e-009 0.991445
    outer loop
      vertex 0.927051 -10.3532 4.37795
      vertex 0 -30 4.5
      vertex 1.94114 -30 4.24444
    endloop
  endfacet
  facet normal 0 -1 0
    outer loop
      vertex -0.955065 -30 2.41644
      vertex 0 -30 4.5
      vertex -1.94114 -30 4.24444
    endloop
  endfacet
  facet normal 0 -1 0
    outer loop
      vertex -2.75 -30 1.76314
      vertex -1.94114 -30 4.24444
      vertex -3.75 -30 3.49519
    endloop
  endfacet
  facet normal 0 -1 0
    outer loop
      vertex 0.955065 -30 2.41644
      vertex 0 -30 4.5
      vertex -0.955065 -30 2.41644
    endloop
  endfacet
  facet normal 0 -1 0
    outer loop
      vertex 0 -30 4.5
      vertex 0.955065 -30 2.41644
      vertex 1.94114 -30 4.24444
    endloop
  endfacet
  facet normal 0 -1 0
    outer loop
      vertex -2.75 -30 1.76314
      vertex -3.75 -30 3.49519
      vertex -5.3033 -30 2.3033
    endloop
  endfacet
  facet normal 0 -1 -0
    outer loop
      vertex -1.94114 -30 4.24444
      vertex -2.75 -30 1.76314
      vertex -0.955065 -30 2.41644
    endloop
  endfacet
  facet normal 0 -1 0
    outer loop
      vertex -4.21324 -30 0.535332
      vertex -5.3033 -30 2.3033
      vertex -6.49519 -30 0.749999
    endloop
  endfacet
  facet normal 0 -1 0
    outer loop
      vertex -5.3033 -30 2.3033
      vertex -4.21324 -30 0.535332
      vertex -2.75 -30 1.76314
    endloop
  endfacet
  facet normal 0 -1 0
    outer loop
      vertex -4.52232 -30 0
      vertex -6.49519 -30 0.749999
      vertex -6.80585 -30 0
    endloop
  endfacet
  facet normal 0 -1 0
    outer loop
      vertex -6.49519 -30 0.749999
      vertex -4.52232 -30 0
      vertex -4.21324 -30 0.535332
    endloop
  endfacet
  facet normal 0 -1 0
    outer loop
      vertex 2.75 -30 1.76314
      vertex 1.94114 -30 4.24444
      vertex 0.955065 -30 2.41644
    endloop
  endfacet
  facet normal 0 -1 0
    outer loop
      vertex 1.94114 -30 4.24444
      vertex 2.75 -30 1.76314
      vertex 3.75 -30 3.49519
    endloop
  endfacet
  facet normal 0 -1 -0
    outer loop
      vertex 3.75 -30 3.49519
      vertex 2.75 -30 1.76314
      vertex 5.3033 -30 2.3033
    endloop
  endfacet
  facet normal 0 -1 0
    outer loop
      vertex 4.21324 -30 0.535332
      vertex 5.3033 -30 2.3033
      vertex 2.75 -30 1.76314
    endloop
  endfacet
  facet normal 0 -1 -0
    outer loop
      vertex 5.3033 -30 2.3033
      vertex 4.21324 -30 0.535332
      vertex 6.49519 -30 0.749999
    endloop
  endfacet
  facet normal 0 -1 0
    outer loop
      vertex 4.52232 -30 0
      vertex 6.49519 -30 0.749999
      vertex 4.21324 -30 0.535332
    endloop
  endfacet
  facet normal 0 -1 -0
    outer loop
      vertex 6.49519 -30 0.749999
      vertex 4.52232 -30 0
      vertex 6.80585 -30 0
    endloop
  endfacet
  facet normal -0.793354 0 0.608761
    outer loop
      vertex -6.49519 -30 0.749999
      vertex -5.3033 5.11436e-016 2.3033
      vertex -6.49519 1.66533e-016 0.749999
    endloop
  endfacet
  facet normal -0.793354 0 0.608761
    outer loop
      vertex -5.3033 5.11436e-016 2.3033
      vertex -6.49519 -30 0.749999
      vertex -5.3033 -30 2.3033
    endloop
  endfacet
  facet normal -0.382684 0 0.923879
    outer loop
      vertex -3.75 7.76088e-016 3.49519
      vertex -1.94114 -5.38361 4.24444
      vertex -1.94114 9.42456e-016 4.24444
    endloop
  endfacet
  facet normal -0.382684 -8.17768e-008 0.923879
    outer loop
      vertex -1.94114 -5.38361 4.24444
      vertex -3.75 7.76088e-016 3.49519
      vertex -2.42705 -5.73664 4.04317
    endloop
  endfacet
  facet normal -0.382683 2.64871e-008 0.92388
    outer loop
      vertex -2.42705 -5.73664 4.04317
      vertex -3.75 7.76088e-016 3.49519
      vertex -3 -7.5 3.80585
    endloop
  endfacet
  facet normal -0.382684 2.52434e-008 0.923879
    outer loop
      vertex -3.75 -30 3.49519
      vertex -1.94114 -9.61639 4.24444
      vertex -2.42705 -9.26336 4.04317
    endloop
  endfacet
  facet normal -0.382683 -1.0472e-008 0.92388
    outer loop
      vertex -3.75 -30 3.49519
      vertex -2.42705 -9.26336 4.04317
      vertex -3 -7.5 3.80585
    endloop
  endfacet
  facet normal -0.382684 0 0.923879
    outer loop
      vertex -3.75 -30 3.49519
      vertex -3 -7.5 3.80585
      vertex -3.75 7.76088e-016 3.49519
    endloop
  endfacet
  facet normal -0.382684 0 0.923879
    outer loop
      vertex -1.94114 -9.61639 4.24444
      vertex -3.75 -30 3.49519
      vertex -1.94114 -30 4.24444
    endloop
  endfacet
  facet normal -0.608761 0 0.793354
    outer loop
      vertex -5.3033 5.11436e-016 2.3033
      vertex -3.75 -30 3.49519
      vertex -3.75 7.76088e-016 3.49519
    endloop
  endfacet
  facet normal -0.608761 0 0.793354
    outer loop
      vertex -3.75 -30 3.49519
      vertex -5.3033 5.11436e-016 2.3033
      vertex -5.3033 -30 2.3033
    endloop
  endfacet
  facet normal 0.382683 0 0.92388
    outer loop
      vertex 3.75 7.76088e-016 3.49519
      vertex 3 -7.5 3.80585
      vertex 3.75 -30 3.49519
    endloop
  endfacet
  facet normal 0.382684 -1.76617e-008 0.923879
    outer loop
      vertex 3.75 7.76088e-016 3.49519
      vertex 2.42705 -5.73664 4.04317
      vertex 3 -7.5 3.80585
    endloop
  endfacet
  facet normal 0.382683 -0 0.92388
    outer loop
      vertex 1.94114 -5.38361 4.24444
      vertex 3.75 7.76088e-016 3.49519
      vertex 1.94114 9.42456e-016 4.24444
    endloop
  endfacet
  facet normal 0.382683 1.08585e-007 0.92388
    outer loop
      vertex 3.75 7.76088e-016 3.49519
      vertex 1.94114 -5.38361 4.24444
      vertex 2.42705 -5.73664 4.04317
    endloop
  endfacet
  facet normal 0.382684 6.98276e-009 0.923879
    outer loop
      vertex 2.42705 -9.26336 4.04317
      vertex 3.75 -30 3.49519
      vertex 3 -7.5 3.80585
    endloop
  endfacet
  facet normal 0.382683 -3.35188e-008 0.92388
    outer loop
      vertex 1.94114 -9.61639 4.24444
      vertex 3.75 -30 3.49519
      vertex 2.42705 -9.26336 4.04317
    endloop
  endfacet
  facet normal 0.382683 0 0.92388
    outer loop
      vertex 3.75 -30 3.49519
      vertex 1.94114 -9.61639 4.24444
      vertex 1.94114 -30 4.24444
    endloop
  endfacet
  facet normal 0 0 -1
    outer loop
      vertex -0.955065 -30 2.41644
      vertex 0.955065 5.36558e-016 2.41644
      vertex 0.955065 -30 2.41644
    endloop
  endfacet
  facet normal -0 0 -1
    outer loop
      vertex 0.955065 5.36558e-016 2.41644
      vertex -0.955065 -30 2.41644
      vertex -0.955065 5.36558e-016 2.41644
    endloop
  endfacet
  facet normal -0.642788 0 -0.766044
    outer loop
      vertex 2.75 -30 1.76314
      vertex 4.21324 1.18868e-016 0.535332
      vertex 4.21324 -30 0.535332
    endloop
  endfacet
  facet normal -0.642788 0 -0.766044
    outer loop
      vertex 4.21324 1.18868e-016 0.535332
      vertex 2.75 -30 1.76314
      vertex 2.75 3.91495e-016 1.76314
    endloop
  endfacet
  facet normal -0.866025 0 -0.5
    outer loop
      vertex 4.52232 -30 0
      vertex 4.21324 1.18868e-016 0.535332
      vertex 4.52232 0 0
    endloop
  endfacet
  facet normal -0.866025 -0 -0.5
    outer loop
      vertex 4.21324 1.18868e-016 0.535332
      vertex 4.52232 -30 0
      vertex 4.21324 -30 0.535332
    endloop
  endfacet
  facet normal -0.34202 0 -0.939693
    outer loop
      vertex 0.955065 -30 2.41644
      vertex 2.75 3.91495e-016 1.76314
      vertex 2.75 -30 1.76314
    endloop
  endfacet
  facet normal -0.34202 0 -0.939693
    outer loop
      vertex 2.75 3.91495e-016 1.76314
      vertex 0.955065 -30 2.41644
      vertex 0.955065 5.36558e-016 2.41644
    endloop
  endfacet
  facet normal 0.34202 0 -0.939693
    outer loop
      vertex -2.75 -30 1.76314
      vertex -0.955065 5.36558e-016 2.41644
      vertex -0.955065 -30 2.41644
    endloop
  endfacet
  facet normal 0.34202 0 -0.939693
    outer loop
      vertex -0.955065 5.36558e-016 2.41644
      vertex -2.75 -30 1.76314
      vertex -2.75 3.91495e-016 1.76314
    endloop
  endfacet
  facet normal 0.642787 0 -0.766045
    outer loop
      vertex -4.21324 -30 0.535332
      vertex -2.75 3.91495e-016 1.76314
      vertex -2.75 -30 1.76314
    endloop
  endfacet
  facet normal 0.642787 0 -0.766045
    outer loop
      vertex -2.75 3.91495e-016 1.76314
      vertex -4.21324 -30 0.535332
      vertex -4.21324 1.18868e-016 0.535332
    endloop
  endfacet
  facet normal 0.866025 0 -0.5
    outer loop
      vertex -4.21324 -30 0.535332
      vertex -4.52232 0 0
      vertex -4.21324 1.18868e-016 0.535332
    endloop
  endfacet
  facet normal 0.866025 0 -0.5
    outer loop
      vertex -4.52232 0 0
      vertex -4.21324 -30 0.535332
      vertex -4.52232 -30 0
    endloop
  endfacet
  facet normal 0 0 -1
    outer loop
      vertex -6.80585 -30 0
      vertex -4.52232 0 0
      vertex -4.52232 -30 0
    endloop
  endfacet
  facet normal -0 0 -1
    outer loop
      vertex -4.52232 0 0
      vertex -6.80585 -30 0
      vertex -6.80585 0 0
    endloop
  endfacet
  facet normal 0 0 -1
    outer loop
      vertex 4.52232 -30 0
      vertex 6.80585 0 0
      vertex 6.80585 -30 0
    endloop
  endfacet
  facet normal -0 0 -1
    outer loop
      vertex 6.80585 0 0
      vertex 4.52232 -30 0
      vertex 4.52232 0 0
    endloop
  endfacet
endsolid OpenSCAD_Model
